﻿1 170 Gewitter
2 241 Regen und Nieselregen 
3 241/258 Regen mix mit Schnee
4 258 Schnee 
5 259/223 Sonnig/Klare Nacht
6 127 teils bewölkt
7 124 bewölkt


280 Achtung

1 170 Gewitter
2 241 Regen
3 258 Schnee
4 259 Sonnig
5 223 klare nacht
6 127 teils bewöklk
7 124 bewölkt
